M48
;DRILL file {KiCad 4.0.7} date 02/09/18 14:15:56
;FORMAT={-:-/ absolute / inch / decimal}
FMAT,2
INCH,TZ
T1C0.031
T2C0.039
%
G90
G05
M72
T1
X6.375Y-4.15
X6.375Y-4.3421
X6.55Y-4.1
X6.55Y-4.1984
X6.55Y-4.3266
X6.55Y-4.425
T2
X4.45Y-3.9
X4.45Y-4.6
X4.55Y-3.9
X4.55Y-4.6
X4.65Y-3.9
X4.65Y-4.6
X4.75Y-3.9
X4.75Y-4.6
X4.85Y-3.9
X4.85Y-4.6
X4.95Y-3.9
X4.95Y-4.6
X5.05Y-3.9
X5.05Y-4.6
X5.15Y-3.9
X5.15Y-4.6
X5.25Y-3.9
X5.25Y-4.6
X5.35Y-3.9
X5.35Y-4.6
X5.45Y-3.9
X5.45Y-4.6
X5.55Y-3.9
X5.55Y-4.6
X5.65Y-3.9
X5.65Y-4.6
X5.75Y-3.9
X5.75Y-4.6
X5.85Y-3.9
X5.85Y-4.6
X5.95Y-3.9
X5.95Y-4.6
X6.Y-4.25
X6.05Y-3.9
X6.05Y-4.6
X6.1Y-4.25
X6.15Y-3.9
X6.15Y-4.6
X6.2Y-4.25
X6.25Y-3.9
X6.25Y-4.6
X6.35Y-3.9
X6.35Y-4.6
X6.45Y-3.9
X6.45Y-4.6
X6.55Y-3.9
X6.55Y-4.6
T0
M30
